Daily Connecticut Covid Report
…
##  2 2020-10-25           859.
##  3 2020-04-27           887.
##  4 2020-04-26          1045.
##  5 2020-04-25          1005.
##  6 2020-04-24          1014.
##  7 2020-04-23          1033.
##  8 2020-04-22          1100.
##  9 2020-04-21           914.
## 10 2020-04-20           916.
## 11 2020-04-17           883.
## 12 2020-04-13           893.
## 13 2020-04-12           869.
## 14 2020-04-11           860.

## # A tibble: 112 x 2
##    date       new_deaths
##    <date>          <int>
##  1 2020-10-28          5
##  2 2020-10-27          9
##  3 2020-10-26          7
##  4 2020-10-25         11
##  5 2020-10-22          8
##  6 2020-10-20          8
##  7 2020-10-19          5
##  8 2020-10-18         12
##  9 2020-10-07          5
## 10 2020-09-13          5
## #  with 102 more rows

## # A tibble: 101 x 2
##    date       new_deaths_07da
##    <date>               <dbl>
##  1 2020-10-28            7.14
##  2 2020-10-27            7.14
##  3 2020-10-26            7.57
##  4 2020-07-20            8.29
##  5 2020-07-19            8.29
##  6 2020-07-16            7.57
##  7 2020-07-15            7.29
##  8 2020-06-28            8.14
##  9 2020-06-27            8   
## 10 2020-06-26            8.57
## #  with 91 more rows

## # A tibble: 71 x 2
##    date       current_hosp
##    <date>            <int>
##  1 2020-10-28          321
##  2 2020-06-07          324
##  3 2020-06-06          333
##  4 2020-06-05          333
##  5 2020-06-04          350
##  6 2020-06-03          373
##  7 2020-06-02          406
##  8 2020-06-01          434
##  9 2020-05-31          454
## 10 2020-05-30          481
## #  with 61 more rows

## # A tibble: 31 x 2
##    date       new_hosp_07da
##    <date>             <dbl>
##  1 2020-10-28          14.9
##  2 2020-10-27          16.3
##  3 2020-10-26          15.4
##  4 2020-04-21          24.3
##  5 2020-04-20          22.7
##  6 2020-04-19          35.3
##  7 2020-04-18          49.3
##  8 2020-04-17          54.9
##  9 2020-04-16          66  
## 10 2020-04-15          70  
## #  with 21 more rows
…
