Daily Connecticut Covid Report
…
LW: 2.6%

 New Deaths

T: 7

Y: 5

LW: 8

* = Record

 The Last Time Things were this bad:

## # A tibble: 22 x 2
##    date       new_cases
##    <date>         <int>
##  1 2020-10-29       775
##  2 2020-10-28      1314
##  3 2020-10-25      1995
##  4 2020-10-18      1159
##  5 2020-10-15       806
##  6 2020-10-11      1300
##  7 2020-10-04       798
##  8 2020-05-06       809
##  9 2020-05-01      1155
## 10 2020-04-30       978
## #  with 12 more rows

## # A tibble: 8 x 2
##   date       new_cases_07da
##   <date>              <dbl>
## 1 2020-10-29           907.
## 2 2020-04-26          1045.
## 3 2020-04-25          1005.
## 4 2020-04-24          1014.
## 5 2020-04-23          1033.
## 6 2020-04-22          1100.
## 7 2020-04-21           914.
## 8 2020-04-20           916.

## # A tibble: 97 x 2
##    date       new_deaths
##    <date>          <int>
##  1 2020-10-29          7
##  2 2020-10-27          9
##  3 2020-10-26          7
##  4 2020-10-25         11
##  5 2020-10-22          8
##  6 2020-10-20          8
##  7 2020-10-18         12
##  8 2020-07-19         10
##  9 2020-07-16          7
## 10 2020-07-15          9
## #  with 87 more rows

## # A tibble: 102 x 2
##    date       new_deaths_07da
##    <date>               <dbl>
##  1 2020-10-29            7   
##  2 2020-10-28            7.14
##  3 2020-10-27            7.14
##  4 2020-10-26            7.57
##  5 2020-07-20            8.29
##  6 2020-07-19            8.29
##  7 2020-07-16            7.57
##  8 2020-07-15            7.29
##  9 2020-06-28            8.14
## 10 2020-06-27            8   
## #  with 92 more rows

## # A tibble: 70 x 2
##    date       current_hosp
##    <date>            <int>
##  1 2020-10-29          329
##  2 2020-06-06          333
##  3 2020-06-05          333
##  4 2020-06-04          350
##  5 2020-06-03          373
##  6 2020-06-02          406
##  7 2020-06-01          434
##  8 2020-05-31          454
##  9 2020-05-30          481
## 10 2020-05-29          533
## #  with 60 more rows

## # A tibble: 29 x 2
##    date       new_hosp_07da
##    <date>             <dbl>
##  1 2020-10-29          16.6
##  2 2020-04-21          24.3
##  3 2020-04-20          22.7
##  4 2020-04-19          35.3
##  5 2020-04-18          49.3
##  6 2020-04-17          54.9
##  7 2020-04-16          66  
##  8 2020-04-15          70  
##  9 2020-04-14          67.3
## 10 2020-04-13          77  
## #  with 19 more rows
…
